<?xml version="1.0" encoding="UTF-8" standalone="no"?>
<!-- Created with Inkscape (http://www.inkscape.org/) -->

<svg
   xmlns:dc="http://purl.org/dc/elements/1.1/"
   xmlns:cc="http://creativecommons.org/ns#"
   xmlns:rdf="http://www.w3.org/1999/02/22-rdf-syntax-ns#"
   xmlns:svg="http://www.w3.org/2000/svg"
   xmlns="http://www.w3.org/2000/svg"
   xmlns:sodipodi="http://sodipodi.sourceforge.net/DTD/sodipodi-0.dtd"
   xmlns:inkscape="http://www.inkscape.org/namespaces/inkscape"
   width="32"
   height="32"
   viewBox="0 0 32 32"
   id="svg5327"
   version="1.1"
   inkscape:version="0.92.3 (2405546, 2018-03-11)"
   sodipodi:docname="cross.svg"
   inkscape:export-filename="/home/andrew/Projects/MLP/clients/cursors/cross.png"
   inkscape:export-xdpi="96"
   inkscape:export-ydpi="96">
  <defs
     id="defs5329">
    <filter
       style="color-interpolation-filters:sRGB"
       height="1.271572"
       y="-0.13578603"
       width="1.440506"
       x="-0.22025298"
       id="filter7078"
       inkscape:collect="always">
      <feGaussianBlur
         id="feGaussianBlur7080"
         stdDeviation="1.1924025"
         inkscape:collect="always" />
    </filter>
  </defs>
  <sodipodi:namedview
     id="base"
     pagecolor="#dcdcdc"
     bordercolor="#666666"
     borderopacity="1.0"
     inkscape:pageopacity="0"
     inkscape:pageshadow="2"
     inkscape:zoom="15.746805"
     inkscape:cx="9.427309"
     inkscape:cy="17.759545"
     inkscape:document-units="px"
     inkscape:current-layer="layer1"
     showgrid="true"
     units="px"
     inkscape:window-width="1920"
     inkscape:window-height="1051"
     inkscape:window-x="1920"
     inkscape:window-y="0"
     inkscape:window-maximized="1">
    <inkscape:grid
       type="xygrid"
       id="grid841"
       empspacing="4" />
  </sodipodi:namedview>
  <metadata
     id="metadata5332">
    <rdf:RDF>
      <cc:Work
         rdf:about="">
        <dc:format>image/svg+xml</dc:format>
        <dc:type
           rdf:resource="http://purl.org/dc/dcmitype/StillImage" />
        <dc:title></dc:title>
      </cc:Work>
    </rdf:RDF>
  </metadata>
  <g
     inkscape:label="Layer 1"
     inkscape:groupmode="layer"
     id="layer1"
     transform="translate(0,-1020.3622)">
    <g
       transform="translate(-4)"
       id="g887"
       style="stroke:#ffffff;stroke-width:3;stroke-miterlimit:4;stroke-dasharray:none">
      <path
         style="fill:none;stroke:#ffffff;stroke-width:3;stroke-linecap:round;stroke-linejoin:bevel;stroke-miterlimit:4;stroke-dasharray:none;stroke-opacity:1"
         d="m 20,1048.3622 8,-8"
         id="path883"
         inkscape:connector-curvature="0"
         sodipodi:nodetypes="cc" />
      <path
         style="fill:none;stroke:#ffffff;stroke-width:3;stroke-linecap:round;stroke-linejoin:bevel;stroke-miterlimit:4;stroke-dasharray:none;stroke-opacity:1"
         d="m 20,1040.3622 8,8"
         id="path885"
         inkscape:connector-curvature="0"
         sodipodi:nodetypes="cc" />
    </g>
    <g
       transform="translate(-20.000005,279.00002)"
       style="display:inline"
       id="g11333"
       inkscape:export-filename="/home/spooky/Downloads/capitaine-cursors/default.png"
       inkscape:export-xdpi="429.86514"
       inkscape:export-ydpi="429.86514">
      <path
         style="color:#000000;font-style:normal;font-variant:normal;font-weight:normal;font-stretch:normal;font-size:medium;line-height:normal;font-family:Sans;-inkscape-font-specification:Sans;text-indent:0;text-align:start;text-decoration:none;text-decoration-line:none;letter-spacing:normal;word-spacing:normal;text-transform:none;writing-mode:lr-tb;direction:ltr;baseline-shift:baseline;text-anchor:start;display:inline;overflow:visible;visibility:visible;opacity:0.2;fill:#000000;fill-opacity:1;fill-rule:nonzero;stroke:none;stroke-width:2;marker:none;filter:url(#filter7078);enable-background:accumulate"
         d="m 23.812505,745.28125 c -0.46695,0.0551 -0.823,0.4979 -0.8125,1.09375 v 16 c 5e-5,0.52358 0.47642,0.99995 1,1 h 3.59375 l 2.6875,2.6875 c 0.29466,0.29526 0.78338,0.37451 1.15625,0.1875 l 1,-0.5 c 0.32794,-0.15944 0.55359,-0.51046 0.5625,-0.875 v -3.59375 l 2.71875,-2.71875 c 0.36548,-0.36968 0.36548,-1.03657 0,-1.40625 l -11,-11.5 c -0.3075,-0.3075 -0.62608,-0.40806 -0.90625,-0.375 z"
         id="path7468"
         inkscape:connector-curvature="0" />
      <g
         id="g11329">
        <path
           sodipodi:nodetypes="ccccccccccccc"
           inkscape:connector-curvature="0"
           id="path2998-2-3-5-7-1-8-8-7-0"
           d="m 23.000005,745.375 v 16 c 5e-5,0.52358 0.47642,0.99995 1,1 0,0 3.882583,-1.25944 3.726333,-1.21534 l 2.554917,3.90284 c 0.29466,0.29526 0.78338,0.37451 1.15625,0.1875 l 1.008456,-0.47958 c 0.32794,-0.15944 0.55359,-0.51046 0.5625,-0.875 l -0.874872,-4.65633 3.585166,-1.67659 c 0.36548,-0.36968 0.36548,-1.03657 0,-1.40625 l -11,-11.5 c -0.81999,-0.81999 -1.73555,-0.23461 -1.71875,0.71875 z"
           style="color:#000000;font-style:normal;font-variant:normal;font-weight:normal;font-stretch:normal;font-size:medium;line-height:normal;font-family:Sans;-inkscape-font-specification:Sans;text-indent:0;text-align:start;text-decoration:none;text-decoration-line:none;letter-spacing:normal;word-spacing:normal;text-transform:none;writing-mode:lr-tb;direction:ltr;baseline-shift:baseline;text-anchor:start;display:inline;overflow:visible;visibility:visible;fill:#ffffff;fill-opacity:1;fill-rule:nonzero;stroke:none;stroke-width:2;marker:none;enable-background:accumulate" />
        <path
           sodipodi:nodetypes="cccccccc"
           inkscape:connector-curvature="0"
           id="path2998-2-3-5-7"
           d="m 24.000005,761.36218 v -16 l 11,11.5 -3.866416,1.95784 0.912199,5.09495 -1.045783,0.44721 -2.867417,-4.21534 z"
           style="fill:#1a1a1a;fill-opacity:1;stroke:none" />
      </g>
    </g>
    <g
       id="g881"
       transform="translate(-4)">
      <path
         sodipodi:nodetypes="cc"
         inkscape:connector-curvature="0"
         id="path843"
         d="m 20,1048.3622 8,-8"
         style="fill:none;stroke:#0000ff;stroke-width:1.5;stroke-linecap:round;stroke-linejoin:bevel;stroke-miterlimit:4;stroke-dasharray:none;stroke-opacity:1" />
      <path
         sodipodi:nodetypes="cc"
         inkscape:connector-curvature="0"
         id="path843-3"
         d="m 20,1040.3622 8,8"
         style="fill:none;stroke:#0000ff;stroke-width:1.5;stroke-linecap:round;stroke-linejoin:bevel;stroke-miterlimit:4;stroke-dasharray:none;stroke-opacity:1" />
    </g>
  </g>
</svg>
